module k8sSample

go 1.16

require (
	github.com/Syfaro/telegram-bot-api v4.6.4+incompatible
	github.com/go-telegram-bot-api/telegram-bot-api v4.6.4+incompatible // indirect
	github.com/technoweenie/multipartstreamer v1.0.1 // indirect
)
